INDEX VERSION 1.4+C:\Users\Jarvis\Desktop\Tarea Sistemas Distribuidos- Matias Ros 4054271\.metadata\.plugins\org.eclipse.wst.jsdt.core\indexes
3641522024.index
2640843912.index
1808734676.index
2984317645.index
1828630941.index
944664491.index
